\relax 
\abx@aux@sortscheme{nty}
\abx@aux@sortnamekeyscheme{global}
\@writefile{toc}{\boolfalse {citerequest}\boolfalse {citetracker}\boolfalse {pagetracker}\boolfalse {backtracker}\relax }
\@writefile{lof}{\boolfalse {citerequest}\boolfalse {citetracker}\boolfalse {pagetracker}\boolfalse {backtracker}\relax }
\@writefile{lot}{\boolfalse {citerequest}\boolfalse {citetracker}\boolfalse {pagetracker}\boolfalse {backtracker}\relax }
\newlabel{eq:sigma}{{12}{2}}
\newlabel{eq:eqfirst}{{21}{4}}
\newlabel{eq:eqsecond}{{22}{4}}
\newlabel{eq:governing}{{26}{5}}
\newlabel{eq:trac boundary}{{27}{5}}
\newlabel{eq:disp boundary}{{28}{5}}
\newlabel{eq:greens}{{30}{5}}
\newlabel{eq:int weak form}{{31}{5}}
\newlabel{eq:disp wf}{{35}{6}}
\newlabel{eq:spaces}{{36}{6}}
\newlabel{eq:disp GAs}{{37}{6}}
\newlabel{eq:disp pd wf}{{41}{6}}
\newlabel{eq:press pd wf}{{43}{6}}
\newlabel{eq:kf dp mf}{{46}{7}}
\newlabel{eq:gm dp mf}{{48}{7}}
\providecommand*\caption@xref[2]{\@setref\relax\@undefined{#1}}
\newlabel{fig:Disp Q04}{{\caption@xref {fig:Disp Q04}{ on input line 442}}{8}}
\newlabel{sub@fig:Disp Q04}{{}{8}}
\newlabel{fig:Disp Q045}{{\caption@xref {fig:Disp Q045}{ on input line 448}}{8}}
\newlabel{sub@fig:Disp Q045}{{a}{8}}
\newlabel{fig:Disp Q0499}{{1c}{8}}
\newlabel{sub@fig:Disp Q0499}{{c}{8}}
\@writefile{lof}{\defcounter {refsection}{0}\relax }\@writefile{lof}{\contentsline {figure}{\numberline {1}{\ignorespaces Plots of the exact solution and solutions produced by Q1 elements, Q1 elements with Selective Reduced Integration (SRI) and Q2 elements for Poison's ratios of a) 0.4 b) 0.45 and c) 0.499\relax }}{8}}
\newlabel{fig:Disp Q}{{1}{8}}
\newlabel{fig:tri04}{{\caption@xref {fig:tri04}{ on input line 468}}{9}}
\newlabel{sub@fig:tri04}{{}{9}}
\newlabel{fig:tri045}{{\caption@xref {fig:tri045}{ on input line 474}}{9}}
\newlabel{sub@fig:tri045}{{a}{9}}
\newlabel{fig:tri0499}{{2c}{9}}
\newlabel{sub@fig:tri0499}{{c}{9}}
\@writefile{lof}{\defcounter {refsection}{0}\relax }\@writefile{lof}{\contentsline {figure}{\numberline {2}{\ignorespaces Plots of the exact solution and solutions produced by P1 elements for Poison's ratios of a) 0.4 b) 0.45 and c) 0.499\relax }}{9}}
\newlabel{fig:tri}{{2}{9}}
\newlabel{fig:pd04}{{3a}{10}}
\newlabel{sub@fig:pd04}{{a}{10}}
\newlabel{fig:pd045}{{3b}{10}}
\newlabel{sub@fig:pd045}{{b}{10}}
\newlabel{fig:pd0499}{{3c}{10}}
\newlabel{sub@fig:pd0499}{{c}{10}}
\newlabel{fig:pd05}{{3d}{10}}
\newlabel{sub@fig:pd05}{{d}{10}}
\@writefile{lof}{\defcounter {refsection}{0}\relax }\@writefile{lof}{\contentsline {figure}{\numberline {3}{\ignorespaces Plots of the exact solution and solutions produced by P1-P0 elements, Q1-P0 elements and Q2-P1 elements for Poison's ratios of a) 0.4 b) 0.45, c) 0.499 d) 0.5\relax }}{10}}
\newlabel{fig:pd}{{3}{10}}
\newlabel{fig:discont04}{{\caption@xref {fig:discont04}{ on input line 551}}{12}}
\newlabel{sub@fig:discont04}{{}{12}}
\newlabel{fig:discont045}{{\caption@xref {fig:discont045}{ on input line 557}}{12}}
\newlabel{sub@fig:discont045}{{a}{12}}
\newlabel{fig:discont0499}{{4c}{12}}
\newlabel{sub@fig:discont0499}{{c}{12}}
\newlabel{fig:discont05}{{4d}{12}}
\newlabel{sub@fig:discont05}{{d}{12}}
\@writefile{lof}{\defcounter {refsection}{0}\relax }\@writefile{lof}{\contentsline {figure}{\numberline {4}{\ignorespaces Plots of discontinuous pressure field produced by Q1-P0 elements for Poison's ratios of a) 0.4 b) 0.45 c) 0.499 and d) 0.5\relax }}{12}}
\newlabel{fig:discont}{{4}{12}}
\newlabel{fig:smooth04}{{\caption@xref {fig:smooth04}{ on input line 582}}{13}}
\newlabel{sub@fig:smooth04}{{}{13}}
\newlabel{fig:smooth045}{{\caption@xref {fig:smooth045}{ on input line 588}}{13}}
\newlabel{sub@fig:smooth045}{{a}{13}}
\newlabel{fig:smooth0499}{{5c}{13}}
\newlabel{sub@fig:smooth0499}{{c}{13}}
\newlabel{fig:smooth05}{{5d}{13}}
\newlabel{sub@fig:smooth05}{{d}{13}}
\@writefile{lof}{\defcounter {refsection}{0}\relax }\@writefile{lof}{\contentsline {figure}{\numberline {5}{\ignorespaces Plots of continuous pressure field produced by pressure smoothing of Q1-P0 elements for Poison's ratios of a) 0.4 b) 0.45 c) 0.499 and d) 0.5\relax }}{13}}
\newlabel{fig:smooth}{{5}{13}}
\abx@aux@cite{bevlec}
\abx@aux@cite{hughes2012finite}
\@writefile{lot}{\defcounter {refsection}{0}\relax }\@writefile{lot}{\contentsline {table}{\numberline {1}{\ignorespaces Vertical displacement at point $(L, l)$ for different solutions\relax }}{14}}
\newlabel{tab:d}{{1}{14}}
